{
  "name": "mysqlconect",
  "connector": "mysql",
  "url": "",
  "host": "127.0.0.1",
  "port": "3306",
  "user": "ibpcrm",
  "password": "1bpcrm",
  "database": "intelirec",
  "socketPath": "/Applications/MAMP/tmp/mysql/mysql.sock"
}
